{
    "KPlugin": {
        "Authors": [
            {
                "Email": "joris.guisson@gmail.com, ivasic@gmail.com",
                "Name": "Joris Guisson, Ivan Vasic",
                "Name[bg]": "Joris Guisson, Ivan Vasic",
                "Name[ca@valencia]": "Joris Guisson, Ivan Vasic",
                "Name[ca]": "Joris Guisson, Ivan Vasic",
                "Name[cs]": "Joris Guisson, Ivan Vasic",
                "Name[de]": "Joris Guisson, Ivan Vasic",
                "Name[en_GB]": "Joris Guisson, Ivan Vasic",
                "Name[eo]": "Joris Guisson, Ivan Vasic",
                "Name[es]": "Joris Guisson, Ivan Vasic",
                "Name[eu]": "Joris Guisson, Ivan Vasic",
                "Name[fi]": "Joris Guisson, Ivan Vasic",
                "Name[fr]": "Joris Guisson, Ivan Vasic",
                "Name[gl]": "Joris Guisson, Ivan Vasic",
                "Name[hu]": "Joris Guisson, Ivan Vasic",
                "Name[ia]": "Joris Guisson, Ivan Vasic",
                "Name[it]": "Joris Guisson, Ivan Vasic",
                "Name[ka]": "Joris Guisson, Ivan Vasic",
                "Name[ko]": "Joris Guisson, Ivan Vasic",
                "Name[nl]": "Joris Guisson, Ivan Vasic",
                "Name[pl]": "Joris Guisson, Ivan Vasic",
                "Name[pt]": "Joris Guisson, Ivan Vasic",
                "Name[pt_BR]": "Joris Guisson, Ivan Vasic",
                "Name[ru]": "Joris Guisson, Ivan Vasic",
                "Name[sk]": "Joris Guisson, Ivan Vasic",
                "Name[sl]": "Joris Guisson, Ivan Vasic",
                "Name[sv]": "Joris Guisson, Ivan Vasic",
                "Name[tr]": "Joris Guisson, Ivan Vasic",
                "Name[uk]": "Joris Guisson, Ivan Vasic",
                "Name[x-test]": "xxJoris Guisson, Ivan Vasicxx",
                "Name[zh_CN]": "Joris Guisson、Ivan Vasic",
                "Name[zh_TW]": "Joris Guisson, Ivan Vasic"
            }
        ],
        "Description": "Filter IP addresses through a blocklist",
        "Description[bg]": "Филтриране на IP-адресите с черен списък",
        "Description[ca@valencia]": "Filtra les adreces IP a través d'una llista de bloqueig",
        "Description[ca]": "Filtra les adreces IP a través d'una llista de bloqueig",
        "Description[cs]": "Filtrovat IP adresy podle seznamu blokovaných",
        "Description[de]": "IP-Adressen mit einer Blockliste filtern",
        "Description[en_GB]": "Filter IP addresses through a blocklist",
        "Description[eo]": "Filtri IP-adresojn per bloklisto",
        "Description[es]": "Filtre direcciones IP por medio de una lista de bloqueo",
        "Description[eu]": "Iragazi IP helbideak blokeatzeko-zerrenda baten bidez",
        "Description[fi]": "Suodata IP-osoitteita estoluettelon avulla",
        "Description[fr]": "Filtre les adresses IP grâce une liste de blocage",
        "Description[gl]": "Filtrar os enderezos IP mediante unha lista de bloqueos.",
        "Description[hu]": "IP-címek szűrése tiltólista alapján",
        "Description[it]": "Filtra gli indirizzi IP attraverso una lista di blocco",
        "Description[ka]": "IP მისამართებ გაფილტვრა დაბლოკვის სიით",
        "Description[ko]": "차단 목록으로 IP 주소 필터링",
        "Description[nl]": "Filter IP-adressen via een blokkeerlijst",
        "Description[pl]": "Filtrowanie adresów IP z wykorzystaniem spisu blokowanych adresów",
        "Description[pt]": "Filtra os endereços IP através de uma lista de bloqueios",
        "Description[pt_BR]": "Filtra os endereços IP através de uma lista de bloqueio",
        "Description[ru]": "Позволяет блокировать определённые IP-адреса",
        "Description[sk]": "Filtrovanie IP adresy cez blocklist",
        "Description[sl]": "Filtriraj naslove IP s seznamom blokiranih",
        "Description[sv]": "Filtrera IP-adresser med en blockeringslista",
        "Description[tr]": "Bir engel listesiyle IP adreslerini süzgeçten geçir",
        "Description[uk]": "Фільтрувати IP-адреси за списком блокування",
        "Description[x-test]": "xxFilter IP addresses through a blocklistxx",
        "Description[zh_CN]": "通过屏蔽列表过滤 IP 地址",
        "Description[zh_TW]": "透過黑名單過濾 IP 位址",
        "EnabledByDefault": false,
        "Icon": "view-filter",
        "Id": "IPFilterPlugin",
        "License": "GPL",
        "Name": "IP Filter",
        "Name[bg]": "Филтър по IP",
        "Name[bs]": "IP filter",
        "Name[ca@valencia]": "Filtre d'IP",
        "Name[ca]": "Filtre d'IP",
        "Name[cs]": "Filtr IP",
        "Name[da]": "IP-filter",
        "Name[de]": "IP-Filter",
        "Name[el]": "Φίλτρο IP",
        "Name[en_GB]": "IP Filter",
        "Name[eo]": "IPFiltrilo",
        "Name[es]": "Filtro de IP",
        "Name[et]": "IP filter",
        "Name[eu]": "IP iragazkia",
        "Name[fi]": "IP-suodatin",
        "Name[fr]": "Filtre d'adresses IP",
        "Name[ga]": "Scagaire IP",
        "Name[gl]": "Filtro de IP",
        "Name[hr]": "IP filtar",
        "Name[hu]": "IP-szűrő",
        "Name[ia]": "Filtro IP",
        "Name[is]": "IP síun",
        "Name[it]": "Filtro IP",
        "Name[ja]": "IP フィルタ",
        "Name[ka]": "IP ფილტრი",
        "Name[kk]": "IP сүзгісі",
        "Name[km]": "តម្រង IP",
        "Name[ko]": "IP 필터",
        "Name[lt]": "IP filtras",
        "Name[lv]": "IP filtrs",
        "Name[nb]": "IP-filter",
        "Name[nds]": "IP-Filter",
        "Name[nl]": "IP-filter",
        "Name[nn]": "IP-filter",
        "Name[pl]": "Filtr IP",
        "Name[pt]": "Filtro de IPs",
        "Name[pt_BR]": "Filtro de IP",
        "Name[ro]": "Filtru IP",
        "Name[ru]": "IP-фильтр",
        "Name[si]": "IP පෙරහන",
        "Name[sk]": "IP Filter",
        "Name[sl]": "Filter IP-jev",
        "Name[sq]": "IP Filtër",
        "Name[sr@ijekavian]": "ИП филтер",
        "Name[sr@ijekavianlatin]": "IP filter",
        "Name[sr@latin]": "IP filter",
        "Name[sr]": "ИП филтер",
        "Name[sv]": "IP-filter",
        "Name[tr]": "IP Süzgeci",
        "Name[ug]": "IP سۈزگۈچ",
        "Name[uk]": "Фільтр IP",
        "Name[x-test]": "xxIP Filterxx",
        "Name[zh_CN]": "IP 过滤",
        "Name[zh_TW]": "IP 過濾",
        "Version": "0.1",
        "Website": "http://kde.org/applications/internet/ktorrent/"
    }
}
