{
    "KPlugin": {
        "Authors": [
            {
                "Email": "trufanovan@gmail.com",
                "Name": "Alexander Trufanov",
                "Name[bg]": "Alexander Trufanov",
                "Name[ca@valencia]": "Alexander Trufanov",
                "Name[ca]": "Alexander Trufanov",
                "Name[cs]": "Alexander Trufanov",
                "Name[de]": "Alexander Trufanov",
                "Name[en_GB]": "Alexander Trufanov",
                "Name[eo]": "Alexander Trufanov",
                "Name[es]": "Alexander Trufanov",
                "Name[eu]": "Alexander Trufanov",
                "Name[fi]": "Alexander Trufanov",
                "Name[fr]": "Alexander Trufanov",
                "Name[gl]": "Alexander Trufanov",
                "Name[hu]": "Alexander Trufanov",
                "Name[ia]": "Alexander Trufanov",
                "Name[it]": "Alexander Trufanov",
                "Name[ka]": "Alexander Trufanov",
                "Name[ko]": "Alexander Trufanov",
                "Name[nl]": "Alexander Trufanov",
                "Name[pl]": "Alexander Trufanov",
                "Name[pt]": "Alexander Trufanov",
                "Name[pt_BR]": "Alexander Trufanov",
                "Name[ru]": "Alexander Trufanov",
                "Name[sk]": "Alexander Trufanov",
                "Name[sl]": "Alexander Trufanov",
                "Name[sv]": "Alexander Trufanov",
                "Name[tr]": "Alexander Trufanov",
                "Name[uk]": "Alexander Trufanov",
                "Name[x-test]": "xxAlexander Trufanovxx",
                "Name[zh_CN]": "Alexander Trufanov",
                "Name[zh_TW]": "Alexander Trufanov"
            }
        ],
        "Description": "Display files in the selected folder that don't belong to any torrent",
        "Description[bg]": "Показване на файлове в избраната папка, които не принадлежат на нито един торент",
        "Description[ca@valencia]": "Mostra els fitxers de la carpeta seleccionada que no pertanyen a cap torrent",
        "Description[ca]": "Mostra els fitxers de la carpeta seleccionada que no pertanyen a cap torrent",
        "Description[cs]": "Zobrazit ve vybrané složce soubory, které nepatří žádnému torrentu",
        "Description[de]": "Dateien im ausgewählten Ordner anzeigen, die zu keinem Torrent gehören",
        "Description[en_GB]": "Display files in the selected folder that don't belong to any torrent",
        "Description[eo]": "Montri dosierojn en la elektita dosierujo, kiuj ne apartenas al iu torento",
        "Description[es]": "Mostrar archivos en la carpeta seleccionada que no pertenecen a ningún torrent",
        "Description[eu]": "Hautatutako karpetan inongo torrenti ez dagozkion fitxategiak azaltzen ditu",
        "Description[fi]": "Näyttää valitun kansion tiedostot, jotka eivät kuulu mihinkään torrenttiin",
        "Description[fr]": "Afficher les fichiers dans le dossier sélectionné n'appartenant à aucun flux « torrent »",
        "Description[gl]": "Amosar os ficheiros do cartafol seleccionado que non corresponden a ningún torrent.",
        "Description[hu]": "Fájlok megjelenítése a kijelölt mappában, amik nem tartoznak egy torrenthez sem",
        "Description[it]": "Visualizza i file nella cartella selezionata che non appartengono ad alcun torrent",
        "Description[ka]": "მონიშნულ საქაღალდეში იმ ფაილების ჩვენება, რომლებიც არც ერთ ტორენტს არ მიეუთვნება",
        "Description[ko]": "선택한 폴더에 있는 파일 중 토렌트에 속하지 않은 파일 표시",
        "Description[nl]": "Bestanden in de geselecteerde map tonen die niet behoren tot een torrent",
        "Description[pl]": "Pokaż pliki w zaznaczonym katalogu, które nie należą do żadnego torrenta.",
        "Description[pt]": "Mostrar os ficheiros na pasta seleccionada que não pertencem a nenhuma torrente",
        "Description[pt_BR]": "Mostra arquivos na pasta selecionada que não pertencem a nenhum torrent",
        "Description[ru]": "Отображение файлов в выбранной папке, которые не принадлежат ни одному торренту",
        "Description[sk]": "Zobrazenie súborov vo vybranom priečinku, ktoré nepatria k žiadnemu torrentu",
        "Description[sl]": "Prikaži datoteke v izbrani mapi, ki ne pripadajo nobenemu torentu",
        "Description[sv]": "Visa filer i den markerade katalogen som inte hör till något dataflöde",
        "Description[tr]": "Herhangi bir torrente ait olmayan dosyaları seçili klasörde görüntüle",
        "Description[uk]": "Показати файли у вибраній теці, які не належать до жодного торента",
        "Description[x-test]": "xxDisplay files in the selected folder that don't belong to any torrentxx",
        "Description[zh_CN]": "显示所选文件夹中不属于任何种子的文件",
        "Description[zh_TW]": "顯示選取資料夾中不屬於任何 torrent 的檔案",
        "EnabledByDefault": false,
        "Icon": "edit-find",
        "Id": "ScanForLostFilesPlugin",
        "License": "GPL",
        "Name": "Scan for lost files",
        "Name[bg]": "Сканиране за изгубени файлове",
        "Name[ca@valencia]": "Explora els fitxers perduts",
        "Name[ca]": "Explora els fitxers perduts",
        "Name[cs]": "Vyhledávat ztracené soubory",
        "Name[de]": "Suchen nach verlorenen Dateien",
        "Name[el]": "Σάρωση για χαμένα αρχεία",
        "Name[en_GB]": "Scan for lost files",
        "Name[eo]": "Skani por perditaj dosieroj",
        "Name[es]": "Escanear archivos perdidos",
        "Name[eu]": "Aztertu galdutako fitxategi bila",
        "Name[fi]": "Etsi kadonneita tiedostoja",
        "Name[fr]": "Rechercher des fichiers perdus",
        "Name[gl]": "Buscar ficheiros perdidos",
        "Name[hu]": "Elveszett fájlok keresése",
        "Name[ia]": "Scande per files perdite",
        "Name[it]": "Ricerca dei file persi",
        "Name[ka]": "დაკარგული ფაილების ძებნა",
        "Name[ko]": "잃어버린 파일 검색",
        "Name[nl]": "Zoek naar verloren bestanden",
        "Name[pl]": "Poszukaj zgubionych plików",
        "Name[pt]": "Sondar por ficheiros perdidos",
        "Name[pt_BR]": "Escanear por arquivos perdidos",
        "Name[ru]": "Поиск утерянных файлов",
        "Name[sk]": "Skenovať stratené súbory",
        "Name[sl]": "Preišči za izgubljenimi datotekami",
        "Name[sv]": "Sök efter förlorade filer",
        "Name[tr]": "Kayıp dosyaları tara",
        "Name[uk]": "Пошук втрачених файлів",
        "Name[x-test]": "xxScan for lost filesxx",
        "Name[zh_CN]": "扫描遗落的文件",
        "Name[zh_TW]": "掃描遺失的檔案",
        "Version": "0.1",
        "Website": "http://kde.org/applications/internet/ktorrent/"
    }
}
